Analysis Techniques for Storytelling with Data
…
340 rows: 10 countries x 34 years. Each row has a country, its region, income classification, year, era label, and the number of measles cases per million people.

Operation 1: Filter

Filter narrows the data to what matters. It’s the difference between “How bad is measles in Africa?” (too broad) and “What happened in East African countries after 2001?” (answerable).

In the blog, I argue that vague questions become specific when you can translate them into operations. Filter is always the first one.

east_africa_post <- measles |>
  filter(region == "East Africa", year >= 2002)

east_africa_post

# A tibble: 110 × 6
   country  region      income_group  year era                 cases_per_million
   <chr>    <chr>       <chr>        <int> <chr>                           <dbl>
 1 Ethiopia East Africa Low           2002 Post-Initiative (2…              1613
 2 Ethiopia East Africa Low           2003 Post-Initiative (2…              1504
 3 Ethiopia East Africa Low           2004 Post-Initiative (2…              1403
 4 Ethiopia East Africa Low           2005 Post-Initiative (2…              1241
 5 Ethiopia East Africa Low           2006 Post-Initiative (2…              1108
 6 Ethiopia East Africa Low           2007 Post-Initiative (2…               973
 7 Ethiopia East Africa Low           2008 Post-Initiative (2…               919
 8 Ethiopia East Africa Low           2009 Post-Initiative (2…               781
 9 Ethiopia East Africa Low           2010 Post-Initiative (2…               718
10 Ethiopia East Africa Low           2011 Post-Initiative (2…               717
# ℹ 100 more rows
…
